2911 = {

    # Misc
    culture = masnsih
    religion = old_bulwari_sun_cult
	holding = tribal_holding

    # History
}

2912 = {

    # Misc
    culture = masnsih
    religion = old_bulwari_sun_cult
	holding = tribal_holding

    # History
}

2913 = {

    # Misc
    culture = masnsih
    religion = old_bulwari_sun_cult
	holding = tribal_holding

    # History
}

2923 = {

    # Misc
    culture = masnsih
    religion = old_bulwari_sun_cult
	holding = tribal_holding

    # History
}

2924 = {

    # Misc
    culture = masnsih
    religion = old_bulwari_sun_cult
	holding = tribal_holding

    # History
}

2925 = {

    # Misc
    culture = masnsih
    religion = old_bulwari_sun_cult
	holding = tribal_holding

    # History
}

2926 = {

    # Misc
    culture = masnsih
    religion = old_bulwari_sun_cult
	holding = tribal_holding

    # History
}

2927 = {

    # Misc
    culture = masnsih
    religion = old_bulwari_sun_cult
	holding = tribal_holding

    # History
}

2928 = {

    # Misc
    culture = masnsih
    religion = old_bulwari_sun_cult
	holding = tribal_holding

    # History
}

2929 = {

    # Misc
    culture = masnsih
    religion = old_bulwari_sun_cult
	holding = tribal_holding

    # History
}

2930 = {

    # Misc
    culture = masnsih
    religion = old_bulwari_sun_cult
	holding = tribal_holding

    # History
}

4400 = {

    # Misc
    culture = masnsih
    religion = old_bulwari_sun_cult
	holding = tribal_holding

    # History
}