﻿#Effects used in hunt events


#####################################################################
# EFFECT LIST
#####################################################################
# !!! Remember to add all new effects with a short description here !!!
#

#hunt_end_pulse_effect
#select_local_animal_effect

######################################################################
# EFFECTS
######################################################################


#Used to find a local animal to hunt
#Note: Don't add more here without also revisiting artifact creation for Skulls and hides.
select_local_animal_effect = {
	hidden_effect = {
		if = {
			limit = {
				NOT = { exists = var:local_animal }
			}
			random_list = {
				40 = {
					# they're everywhere
					set_variable = {
						name = local_animal
						value = flag:hart
					}
				}
				20 = {
					# they're everywhere
					set_variable = {
						name = local_animal
						value = flag:stag
					}
				}
				20 = {
					# they're everywhere, but Muslims and Jews wouldn't hunt them 
					# modifier = { # Anbennar
						# factor = 0
						# faith = {
							# OR = {
								# religion_tag = islam_religion
								# religion_tag = judaism_religion
							# }
						# }
					# }
					set_variable = {
						name = local_animal
						value = flag:boar
					}
				}
				10 = {
					# they're everywhere
					set_variable = {
						name = local_animal
						value = flag:fox
					}
				}
				10 = {
					# they're everywhere
					set_variable = {
						name = local_animal
						value = flag:wolf
					}
				}
				0.5 = {
					# they're everywhere
					modifier = {
						add = 10 #A really poor hunter or a child has a higher chance of focusing on hunting a hare
						OR = {
							is_adult = no
							adventure_inspiration_average_skill_value < 2
						}
					}
					set_variable = {
						name = local_animal
						value = flag:hare
					}
				}
				0.5 = {
					# they're everywhere
					modifier = {
						add = 10 #A really poor hunter or a child has a higher chance of focusing on hunting a rabbit
						OR = {
							is_adult = no
							adventure_inspiration_average_skill_value < 2
						}
					}
					set_variable = {
						name = local_animal
						value = flag:rabbit
					}
				}
				# 5 = { # Anbennar
					# # not in africa
					# modifier = {
						# factor = 0
						# location = { geographical_region = world_africa }
					# }
					# set_variable = {
						# name = local_animal
						# value = flag:bear
					# }
				# }
				# 5 = { # Anbennar
					# # not in europe
					# modifier = {
						# factor = 0
						# location = { geographical_region = world_europe }
					# }
					# set_variable = {
						# name = local_animal
						# value = flag:lion
					# }
				# }
				# 5 = { # Anbennar
					# # india only
					# modifier = {
						# factor = 0
						# location = { NOT = { geographical_region = world_india } }
					# }
					# set_variable = {
						# name = local_animal
						# value = flag:tiger
					# }
				# }
				# 5 = { # Anbennar
					# # europe only
					# modifier = {
						# factor = 0
						# location = { NOT = { geographical_region = world_europe } }
					# }
					# set_variable = {
						# name = local_animal
						# value = flag:lynx
					# }
				# }
				0.1 = {
					# they're nowhere
					modifier = {
						add = 10
						has_trait = lunatic
					}
					set_variable = {
						name = local_animal
						value = flag:unicorn
					}
				}
				0.1 = {
					# they're nowhere
					modifier = {
						add = 10
						has_trait = lunatic
					}
					set_variable = {
						name = local_animal
						value = flag:dragon
					}
				}
			}
		}
	}
}


#Used to find a local big animal
big_animal_effect = {
	location.county = { save_scope_as = location }
	hidden_effect = {
		random_list = {
			40 = {
				# they're everywhere
				set_variable = {
					name = local_animal
					value = flag:hart
				}
			}
			20 = {
				# they're everywhere
				set_variable = {
					name = local_animal
					value = flag:stag
				}
			}
			20 = {
				# they're everywhere, but Muslims and Jews wouldn't hunt them 
				# modifier = { # Anbennar
					# factor = 0
					# faith = {
						# OR = {
							# religion_tag = islam_religion
							# religion_tag = judaism_religion
						# }
					# }
				# }
				set_variable = {
					name = local_animal
					value = flag:boar
				}
			}
			10 = {
				# they're everywhere
				set_variable = {
					name = local_animal
					value = flag:wolf
				}
			}
			5 = {
				# not in africa
				trigger = {
					artifact_feature_animal_bear_trigger = yes
				}
				set_variable = {
					name = local_animal
					value = flag:bear
				}
			}
			5 = {
				# not in europe
				trigger = {
					artifact_feature_animal_lion_trigger = yes
				}
				set_variable = {
					name = local_animal
					value = flag:lion
				}
			}
			5 = {
				# india only
				trigger = {
					artifact_feature_animal_tiger_trigger = yes
				}
				set_variable = {
					name = local_animal
					value = flag:tiger
				}
			}
			0.1 = {
				# they're nowhere
				modifier = {
					add = 10
					has_trait = lunatic
				}
				set_variable = {
					name = local_animal
					value = flag:unicorn
				}
			}
			0.1 = {
				# they're nowhere
				modifier = {
					add = 10
					has_trait = lunatic
				}
				set_variable = {
					name = local_animal
					value = flag:dragon
				}
			}
		}
	}
	clear_saved_scope = location
}

#Used to find a local dangerous animal
dangerous_animal_effect = {
	hidden_effect = {
		random_list = {
			40 = {
				# they're everywhere
				set_variable = {
					name = local_animal
					value = flag:wolf
				}
			}
			10 = {
				# they're everywhere
				set_variable = {
					name = local_animal
					value = flag:boar
				}
			}
			10 = {
				# not in africa
				modifier = {
					factor = 0
					$CHARACTER$.location = { geographical_region = world_africa }
				}
				set_variable = {
					name = local_animal
					value = flag:bear
				}
			}
			10 = {
				# not in europe
				modifier = {
					factor = 0
					$CHARACTER$.location = { geographical_region = world_europe }
				}
				set_variable = {
					name = local_animal
					value = flag:lion
				}
			}
			10 = {
				# india only
				modifier = {
					factor = 0
					$CHARACTER$.location = { NOT = { geographical_region = world_india } }
				}
				set_variable = {
					name = local_animal
					value = flag:tiger
				}
			}
			0 = {
				# they're nowhere
				modifier = {
					add = 20
					has_trait = lunatic
				}
				set_variable = {
					name = local_animal
					value = flag:dragon
				}
			}
		}
	}
}

#used to find a local "harmless" animal
select_local_harmless_animal_effect = {
	hidden_effect = {
		random_list = {
			40 = {
				# they're everywhere
				set_variable = {
					name = local_animal
					value = flag:hart
				}
			}
			20 = {
				# they're everywhere
				set_variable = {
					name = local_animal
					value = flag:stag
				}
			}
			20 = {
				# they're everywhere
				set_variable = {
					name = local_animal
					value = flag:boar
				}
			}
			10 = {
				# they're everywhere
				set_variable = {
					name = local_animal
					value = flag:fox
				}
			}
			10 = {
				# they're everywhere
				set_variable = {
					name = local_animal
					value = flag:hare
				}
			}
			0 = {
				modifier = {
					add = 20
					has_trait = lunatic
				}
				set_variable = {
					name = local_animal
					value = flag:unicorn
				}
			}
		}
	}
}

#Effect to start the story and show the right tooltip
start_hunt_mystical_animal_story_cycle_effect = {
	#Only for players, fake it for ai
	if = {
		limit = {
			is_ai = no
		}
		custom_tooltip = start_hunt_mystical_animal_story_cycle_effect.tt
		hidden_effect = {
			create_story = story_cycle_hunt_mystical_animal
		}
	}
	else = {
		hidden_effect = {
			random_list = {
				5 = { #The ai got the animal, wow!
					add_prestige = major_prestige_gain
					add_character_modifier = {
						modifier = hunt_mystical_animal_modifier
						years = 20
					}
				}
				95 = {
					#Nothing happens for them
				}
			}
		}
	}
}

#Effect to end the story and apply everything - You got the animal!
end_hunt_mystical_animal_story_cycle_effect = {
	add_prestige = major_prestige_gain
	give_nickname = nick_the_venator
	change_trait_rank = {
		trait = lifestyle_hunter
		rank = 1
	}
	add_character_modifier = {
		modifier = hunt_mystical_animal_modifier
		years = 20
	}
	set_variable = {
		name = hunted_mystical_animal
		value = root.var:local_animal
	}
	set_variable = {
		name = animal_hide_type
		value = root.var:local_animal
		days = 1
	}
	set_variable = {
		name = mystical_white_animal
		days = 1
	}
	if = {
		limit = {
			exists = root.var:local_animal
			OR = {
				root.var:local_animal = flag:hare
				root.var:local_animal = flag:rabbit
			}
		}
		create_artifact_animal_hide_small_effect = {
			OWNER = root
			HUNTER = root
		}
	}
	else_if = {
		limit = {
			exists = root.var:local_animal
			OR = {
				root.var:local_animal = flag:fox
				root.var:local_animal = flag:boar
				root.var:local_animal = flag:lynx
			}
		}
		create_artifact_animal_hide_medium_effect = {
			OWNER = root
			HUNTER = root
		}
	}
	else = {
		create_artifact_animal_hide_big_effect = {
			OWNER = root
			HUNTER = root
		}
	}
	add_stress = medium_stress_loss
	scope:story = {
		hidden_effect = { end_story = yes }
	}
}
